{
  "states": [
    "intent_book_room",
    "intent_deny",
    "intent_goodbye",
    "intent_greet",
    "intent_joke",
    "intent_name",
    "intent_thanks",
    "entity_day",
    "entity_name",
    "entity_duration",
    "entity_hour_start",
    "entity_name_room",
    "slot_day_0",
    "slot_duration_0",
    "slot_hour_start_0",
    "slot_name_0",
    "slot_name_room_0",
    "prev_action_listen",
    "prev_action_restart",
    "prev_action_default_fallback",
    "prev_action_deactivate_form",
    "prev_utter_ask_duration",
    "prev_utter_goodbye",
    "prev_utter_thanks",
    "prev_utter_name",
    "prev_utter_ask_hour_start",
    "prev_utter_greet",
    "prev_utter_ask_room",
    "prev_action_joke",
    "prev_action_room",
    "prev_utter_ask_day"
  ]
}